HW 01
…
rent <- read_csv("https://raw.githubusercontent.com/rfordatascience/tidytuesday/master/data/2022/2022-07-05/rent.csv")

Rows: 200796 Columns: 17
── Column specification ────────────────────────────────────────────────────────
Delimiter: ","
chr (8): post_id, nhood, city, county, address, title, descr, details
dbl (9): date, year, price, beds, baths, sqft, room_in_apt, lat, lon

ℹ Use `spec()` to retrieve the full column specification for this data.
ℹ Specify the column types or set `show_col_types = FALSE` to quiet this message.

print(rent)

# A tibble: 200,796 × 17
   post_id     date  year nhood city  county price  beds baths  sqft room_in_apt
   <chr>      <dbl> <dbl> <chr> <chr> <chr>  <dbl> <dbl> <dbl> <dbl>       <dbl>
 1 pre2013_… 2.01e7  2005 alam… alam… alame…  1250     2     2    NA           0
 2 pre2013_… 2.01e7  2005 alam… alam… alame…  1295     2    NA    NA           0
 3 pre2013_… 2.00e7  2004 alam… alam… alame…  1100     2    NA    NA           0
 4 pre2013_… 2.01e7  2012 alam… alam… alame…  1425     1    NA   735           0
 5 pre2013_… 2.00e7  2004 alam… alam… alame…   890     1    NA    NA           0
 6 pre2013_… 2.01e7  2006 alam… alam… alame…   825     1    NA    NA           0
 7 pre2013_… 2.01e7  2007 alam… alam… alame…  1500     1     1    NA           0
 8 63790969… 2.02e7  2017 alam… alam… alame…  2925     3    NA    NA           0
 9 pre2013_… 2.01e7  2009 alam… alam… alame…   450    NA     1    NA           0
10 pre2013_… 2.01e7  2006 alam… alam… alame…  1395     2    NA    NA           0
# ℹ 200,786 more rows
# ℹ 6 more variables: address <chr>, lat <dbl>, lon <dbl>, title <chr>,
#   descr <chr>, details <chr>

# Filter for San Francisco and full units only
rent_sanfran <- rent %>% 
  filter(city == "san francisco", room_in_apt == 0)
print(rent_sanfran)

# A tibble: 55,607 × 17
   post_id     date  year nhood city  county price  beds baths  sqft room_in_apt
   <chr>      <dbl> <dbl> <chr> <chr> <chr>  <dbl> <dbl> <dbl> <dbl>       <dbl>
 1 pre2013_… 2.00e7  2001 alam… san … san f…  1300     1    NA    NA           0
 2 pre2013_… 2.00e7  2004 alam… san … san f…  1450     1    NA    NA           0
 3 pre2013_… 2.00e7  2001 alam… san … san f…  2350     2     1    NA           0
 4 pre2013_… 2.00e7  2001 alam… san … san f…  3100     4    NA  1900           0
 5 pre2013_… 2.00e7  2002 alam… san … san f…  1195     0    NA    NA           0
 6 pre2013_… 2.00e7  2002 alam… san … san f…  1200     0    NA    NA           0
 7 pre2013_… 2.00e7  2002 alam… san … san f…  2550     3     2  1432           0
 8 pre2013_… 2.01e7  2008 alam… san … san f…  2200     1    NA   900           0
 9 pre2013_… 2.01e7  2012 alam… san … san f…  1645    NA    NA    NA           0
10 pre2013_… 2.01e7  2006 alam… san … san f…  5900     4    NA    NA           0
# ℹ 55,597 more rows
# ℹ 6 more variables: address <chr>, lat <dbl>, lon <dbl>, title <chr>,
#   descr <chr>, details <chr>
…
$troops
# A tibble: 51 × 5
    long   lat survivors direction group
   <dbl> <dbl>     <dbl> <chr>     <dbl>
 1  24    54.9    340000 advancing     1
 2  24.5  55      340000 advancing     1
 3  25.5  54.5    340000 advancing     1
 4  26    54.7    320000 advancing     1
 5  27    54.8    300000 advancing     1
 6  28    54.9    280000 advancing     1
 7  28.5  55      240000 advancing     1
 8  29    55.1    210000 advancing     1
 9  30    55.2    180000 advancing     1
10  30.3  55.3    175000 advancing     1
# ℹ 41 more rows
…
